[
  {
    "catId": 1,
    "catName": "categroy 1",
    "imageurl": "img/white/ambulance.png",
    "subcategory": [
      {
        "subcatId": 0,
        "subcatName": "subCatategory 1"
      },
      {
        "subcatId": 1,
        "subcatName": "subCatategory 2"
      },
      {
        "subcatId": 2,
        "subcatName": "subCatategory 3"
      },
      {
        "subcatId": 3,
        "subcatName": "subCatategory 4"
      },
      {
        "subcatId": 4,
        "subcatName": "subCatategory 5"
      },
      {
        "subcatId": 5,
        "subcatName": "subCatategory 6"
      },
      {
        "subcatId": 6,
        "subcatName": "subCatategory 7"
      },
      {
        "subcatId": 7,
        "subcatName": "subCatategory 8"
      },
      {
        "subcatId": 8,
        "subcatName": "subCatategory 9"
      }
    ]
  },
  {
    "catId": 2,
    "catName": "categroy 2",
    "imageurl": "img/white/ambulance.png",
    "subcategory": [
      {
        "subcatId": 0,
        "subcatName": "j l subCatategory 1"
      },
      {
        "subcatId": 1,
        "subcatName": "subCatategory 2"
      },
      {
        "subcatId": 2,
        "subcatName": "subCatategory 3"
      },
      {
        "subcatId": 3,
        "subcatName": "subCatategory 4"
      },
      {
        "subcatId": 4,
        "subcatName": "subCatategory 5"
      },
      {
        "subcatId": 5,
        "subcatName": "subCatategory 6"
      }
    ]
  },
  {
    "catId": 3,
    "catName": "categroy 3",
    "imageurl": "img/white/ambulance.png",
    "subcategory": [
      {
        "subcatId": 0,
        "subcatName": "subCatategory 1"
      },
      {
        "subcatId": 1,
        "subcatName": "subCatategory 2"
      },
      {
        "subcatId": 2,
        "subcatName": "loop subCatategory 3"
      },
      {
        "subcatId": 3,
        "subcatName": "subCatategory 4"
      },
      {
        "subcatId": 4,
        "subcatName": "subCatategory 5"
      },
      {
        "subcatId": 5,
        "subcatName": "subCatategory 6"
      },
      {
        "subcatId": 6,
        "subcatName": "subCatategory 7"
      },
      {
        "subcatId": 7,
        "subcatName": "subCatategory 8"
      },
      {
        "subcatId": 8,
        "subcatName": "subCatategory 9"
      }
    ]
  },
  {
    "catId": 4,
    "catName": "categroy 4",
    "imageurl": "img/white/ambulance.png",
    "subcategory": [
      {
        "subcatId": 0,
        "subcatName": "subCatategory 1"
      },
      {
        "subcatId": 1,
        "subcatName": "mak subCatategory 2"
      },
      {
        "subcatId": 2,
        "subcatName": "subCatategory 3"
      },
      {
        "subcatId": 3,
        "subcatName": "subCatategory 4"
      },
      {
        "subcatId": 4,
        "subcatName": "subCatategory 5"
      },
      {
        "subcatId": 5,
        "subcatName": "subCatategory 6"
      },
      {
        "subcatId": 6,
        "subcatName": "subCatategory 7"
      },
      {
        "subcatId": 7,
        "subcatName": "subCatategory 8"
      }
    ]
  },
  {
    "catId": 5,
    "catName": "categroy 5",
    "imageurl": "img/white/ambulance.png",
    "subcategory": [
      {
        "subcatId": 0,
        "subcatName": "subCatategory 1"
      },
      {
        "subcatId": 1,
        "subcatName": "subCatategory 2"
      },
      {
        "subcatId": 2,
        "subcatName": "subCatategory 3"
      },
      {
        "subcatId": 3,
        "subcatName": "subCatategory 4"
      },
      {
        "subcatId": 4,
        "subcatName": "subCatategory 5"
      },
      {
        "subcatId": 5,
        "subcatName": " bda subCatategory 6"
      },
      {
        "subcatId": 6,
        "subcatName": "subCatategory 7"
      },
      {
        "subcatId": 7,
        "subcatName": "subCatategory 8"
      },
      {
        "subcatId": 8,
        "subcatName": "subCatategory 9"
      }
    ]
  },
  {
    "catId": 6,
    "catName": "categroy 6",
    "imageurl": "img/white/ambulance.png",
    "subcategory": [
      {
        "subcatId": 0,
        "subcatName": "subCatategory 1"
      },
      {
        "subcatId": 1,
        "subcatName": "subCatategory 2"
      },
      {
        "subcatId": 2,
        "subcatName": "subCatategory 3"
      },
      {
        "subcatId": 3,
        "subcatName": "subCatategory 4"
      },
      {
        "subcatId": 4,
        "subcatName": "subCatategory 5"
      },
      {
        "subcatId": 5,
        "subcatName": "subCatategory 6"
      },
      {
        "subcatId": 6,
        "subcatName": "subCatategory 7"
      },
      {
        "subcatId": 7,
        "subcatName": "subCatategory 8"
      },
      {
        "subcatId": 8,
        "subcatName": "subCatategory 9"
      },
      {
        "subcatId": 9,
        "subcatName": "look subCatategory 10"
      }
    ]
  },
  {
    "catId": 7,
    "catName": "categroy 7",
    "imageurl": "img/white/ambulance.png",
    "subcategory": [
      {
        "subcatId": 1,
        "subcatName": " test subCatategory 1"
      },
      {
        "subcatId": 1,
        "subcatName": " test subCatategory 2"
      },
      {
        "subcatId": 2,
        "subcatName": "subCatategory 3"
      },
      {
        "subcatId": 3,
        "subcatName": "subCatategory 4"
      },
      {
        "subcatId": 4,
        "subcatName": "subCatategory 5"
      },
      {
        "subcatId": 5,
        "subcatName": "subCatategory 6"
      },
      {
        "subcatId": 6,
        "subcatName": "subCatategory 7"
      },
      {
        "subcatId": 7,
        "subcatName": "subCatategory 8"
         },
      {
        "subcatId": 7,
        "subcatName": "subCatategory 8"
      }

    ]
  }
]